{
    "login": {
        "hashsalt": ": ]",
        "log_level": "debug"
    },
    "api": {
        "host": "0.0.0.0",
        "port": 1313,
        "threaded": true,
        "debug_mode": false,
        "log_level": "debug",
        "werkzeug_log_level": "info"
    },
    "db": {
        "host": "207.154.216.232",
        "port": 27017,
        "db_name": "chat"
    },
    "tests": {
        "db": {
            "host": "127.0.0.1",
            "port": 27017,
            "db_name": "chat"
        },
        "log_level": "debug"
    }
}